territory2_id,name
0MI01000000CfRBGA0,BR
0MI01000000CfFcGAK,BR11000080
0MI01000000CfQLGA0,BR11010010
0MI01000000CfJBGA0,BR11010114
0MI01000000CfIlGAK,BR11010214
0MI01000000CfbyGAC,BR11010314
0MI01000000CfqzGAC,BR11010414
0MI01000000CfLgGAK,BR11010419
0MI01000000CfAaGAK,BR11010519
0MI01000000CfaVGAS,BR11010612
0MI01000000CfXiGAK,BR11010712
0MI01000000CfdFGAS,BR11010812
0MI01000000CfKYGA0,BR11020010
0MI01000000CfBBGA0,BR11020114
0MI01000000CfG4GAK,BR11020214
0MI01000000CfHhGAK,BR11020314
0MI01000000CfQuGAK,BR11020419
0MI01000000CfFwGAK,BR11020519
0MI01000000CfDgGAK,BR11020612
0MI01000000CfJyGAK,BR11020712
0MI01000000Cf9jGAC,BR11020812
0MI01000000CfJGGA0,BR11030010
0MI01000000CfLRGA0,BR11030114
0MI01000000CfRYGA0,BR11030214
0MI01000000CfLzGAK,BR11030314
0MI01000000CfR9GAK,BR11030419
0MI01000000CfVfGAK,BR11030519
0MI01000000Cf8qGAC,BR11030612
0MI01000000CfNqGAK,BR11030619
0MI01000000CfDqGAK,BR11030712
0MI01000000CfauGAC,BR11030812
0MI01000000CfERGA0,BR11030912
0MI01000000CfKDGA0,BR11031012
0MI01000000CfNWGA0,BR11040010
0MI01000000CfMEGA0,BR11040114
0MI01000000CfSRGA0,BR11040214
0MI01000000CfMTGA0,BR11040314
0MI01000000CfDwGAK,BR11040419
0MI01000000CfQpGAK,BR11040519
0MI01000000CfO8GAK,BR11040612
0MI01000000CfaHGAS,BR11040712
0MI01000000CfWkGAK,BR11040812
0MI01000000CfEFGA0,BR11040912
0MI01000000CfNRGA0,BR11050010
0MI01000000CfGqGAK,BR11050114
0MI01000000CfIgGAK,BR11050214
0MI01000000CfHkGAK,BR11050314
0MI01000000CfXwGAK,BR11050419
0MI01000000Cff6GAC,BR11050519
0MI01000000CfTPGA0,BR11050619
0MI01000000CfPEGA0,BR11050712
0MI01000000CfE0GAK,BR11050812
0MI01000000CfJ6GAK,BR11050912
0MI01000000CfLkGAK,BR11060010
0MI01000000Cf9VGAS,BR11060114
0MI01000000CfKcGAK,BR11060214
0MI01000000CfY6GAK,BR11060314
0MI01000000CfTUGA0,BR11060419
0MI01000000CfVpGAK,BR11060519
0MI01000000CfC2GAK,BR11060619
0MI01000000Cf8vGAC,BR11060712
0MI01000000CfdPGAS,BR11060812
0MI01000000CfPoGAK,BR11060912
0MI01000000CfLfGAK,BR11070010
0MI01000000CfIbGAK,BR11070114
0MI01000000CfZZGA0,BR11070214
0MI01000000CfbeGAC,BR11070314
0MI01000000CfQlGAK,BR11070414
0MI01000000CfCPGA0,BR11070419
0MI01000000CfMUGA0,BR11070519
0MI01000000CfS2GAK,BR11070612
0MI01000000CfK8GAK,BR11070712
0MI01000000CfXvGAK,BR11070812
0MI01000000CfqwGAC,BR11070912
0MI01000000CfLaGAK,BR11080010
0MI01000000CfS9GAK,BR11080114
0MI01000000Cfb4GAC,BR11080214
0MI01000000CfLuGAK,BR11080314
0MI01000000CffBGAS,BR11080419
0MI01000000CfQfGAK,BR11080519
0MI01000000Cf90GAC,BR11080612
0MI01000000CfdKGAS,BR11080712
0MI01000000Cf95GAC,BR11080812
0MI01000000CfrHGAS,BR11080912
0MI01000000CfQQGA0,BR11090010
0MI01000000CfRJGA0,BR11090114
0MI01000000CfKVGA0,BR11090214
0MI01000000CfUsGAK,BR11090314
0MI01000000CfBXGA0,BR11090419
0MI01000000CfN3GAK,BR11090519
0MI01000000CfPnGAK,BR11090612
0MI01000000CfKIGA0,BR11090712
0MI01000000Cf9AGAS,BR11090812
0MI01000000CfQHGA0,BR11150246
0MI01000000CfQDGA0,BR11300146
0MI01000000CfehGAC,BR12000080
0MI01000000CfG7GAK,BR12010060
0MI01000000CfYoGAK,BR12010161
0MI01000000CfrBGAS,BR12010162
0MI01000000CfUjGAK,BR12010261
0MI01000000CfTQGA0,BR12010361
0MI01000000CfKbGAK,BR12010461
0MI01000000CfRoGAK,BR12010561
0MI01000000CfAPGA0,BR12010661
0MI01000000CfXCGA0,BR12010761
0MI01000000CfX7GAK,BR12010861
0MI01000000CfIjGAK,BR12010962
0MI01000000CfrFGAS,BR12011061
0MI01000000CfrDGAS,BR12011062
0MI01000000CfrGGAS,BR12011161
0MI01000000CfN6GAK,BR12020060
0MI01000000CfWTGA0,BR12020161
0MI01000000CfWOGA0,BR12020261
0MI01000000CfOkGAK,BR12020361
0MI01000000CfKnGAK,BR12020461
0MI01000000CfFKGA0,BR12020561
0MI01000000CfWJGA0,BR12020661
0MI01000000CfH1GAK,BR12020761
0MI01000000CfWEGA0,BR12020861
0MI01000000CfR5GAK,BR12020961
0MI01000000CfUcGAK,BR12021061
0MI01000000CfJ7GAK,BR12030060
0MI01000000CfUKGA0,BR12030161
0MI01000000CfKUGA0,BR12030261
0MI01000000CfUXGA0,BR12030361
0MI01000000CfScGAK,BR12030461
0MI01000000CfQgGAK,BR12030561
0MI01000000CfSgGAK,BR12030661
0MI01000000CfSbGAK,BR12030761
0MI01000000CfHgGAK,BR12030861
0MI01000000CfO1GAK,BR12030961
0MI01000000CfGMGA0,BR12031061
0MI01000000CfWxGAK,BR12031162
0MI01000000CfLHGA0,BR12040060
0MI01000000CfMxGAK,BR12040161
0MI01000000CfMPGA0,BR12040261
0MI01000000CfMsGAK,BR12040361
0MI01000000CfMnGAK,BR12040461
0MI01000000CfMiGAK,BR12040561
0MI01000000CfIDGA0,BR12040661
0MI01000000CfGJGA0,BR12040761
0MI01000000CfMdGAK,BR12040861
0MI01000000CfMYGA0,BR12040961
0MI01000000CfGuGAK,BR12041061
0MI01000000Cfr7GAC,BR12041161
0MI01000000CfdLGAS,BR12050060
0MI01000000CfGpGAK,BR12050161
0MI01000000CfB8GAK,BR12050261
0MI01000000CfGkGAK,BR12050361
0MI01000000CfGfGAK,BR12050461
0MI01000000CfGaGAK,BR12050561
0MI01000000CfGVGA0,BR12050661
0MI01000000Cfr4GAC,BR12050761
0MI01000000CfWsGAK,BR12050762
0MI01000000Cfr5GAC,BR12050861
0MI01000000CfEfGAK,BR12050961
0MI01000000CfJMGA0,BR12060060
0MI01000000CfANGA0,BR12060161
0MI01000000CfAIGA0,BR12060261
0MI01000000CfADGA0,BR12060361
0MI01000000CfA8GAK,BR12060461
0MI01000000CfA3GAK,BR12060561
0MI01000000Cf9yGAC,BR12060661
0MI01000000Cf9tGAC,BR12060761
0MI01000000Cf9oGAC,BR12060861
0MI01000000CfRlGAK,BR12060961
0MI01000000CfeNGAS,BR12061061
0MI01000000Cfr6GAC,BR12061161
0MI01000000CfCKGA0,BR12061162
0MI01000000CferGAC,BR12080060
0MI01000000CfWNGA0,BR12080164
0MI01000000CfewGAC,BR12080264
0MI01000000CfG8GAK,BR12080364
0MI01000000CfF3GAK,BR12080464
0MI01000000CfEyGAK,BR12080564
0MI01000000Cfc8GAC,BR12080664
0MI01000000CfcvGAC,BR12080764
0MI01000000CfEtGAK,BR12080864
0MI01000000CfUOGA0,BR12090060
0MI01000000CfOlGAK,BR12090164
0MI01000000CfC8GAK,BR12090264
0MI01000000CfF8GAK,BR12090364
0MI01000000CfDDGA0,BR12090464
0MI01000000CfFDGA0,BR12090564
0MI01000000Cff1GAC,BR12090664
0MI01000000CfdkGAC,BR12090764
0MI01000000CfYMGA0,BR12100060
0MI01000000CfdMGAS,BR12100164
0MI01000000CfEoGAK,BR12100264
0MI01000000CfeJGAS,BR12100364
0MI01000000CfC7GAK,BR12100464
0MI01000000CfUEGA0,BR12100564
0MI01000000CfRkGAK,BR12100664
0MI01000000CfemGAC,BR12100764
0MI01000000CfUNGA0,BR12150146
0MI01000000CfKOGA0,BR12300146
0MI01000000CfUJGA0,BR13000040
0MI01000000Cf8rGAC,BR13310146
0MI01000000CfTLGA0,BR13310246
0MI01000000CfKTGA0,BR13310346
0MI01000000CfRyGAK,BR13310446
0MI01000000CfEQGA0,BR13310546
0MI01000000CfWKGA0,BR13310646
0MI01000000CfBMGA0,BR13310746
0MI01000000CfN5GAK,BR13310846
0MI01000000CfQvGAK,BR13310946
0MI01000000CfUrGAK,BR13311046
0MI01000000CfDmGAK,BR13311146
0MI01000000CfU9GAK,BR13311246
0MI01000000CfV6GAK,BR13311346
0MI01000000CfEGGA0,BR13311446
0MI01000000CfXHGA0,BR13311546
0MI01000000CfOjGAK,BR13311646
0MI01000000Cf9uGAC,BR13311746
0MI01000000CfH0GAK,BR13311846
0MI01000000CfV1GAK,BR13311946
0MI01000000CfAUGA0,BR13312046
0MI01000000CfNrGAK,BR13312146
0MI01000000CfLQGA0,BR14000080
0MI01000000CfFAGA0,BR14010010
0MI01000000CfKXGA0,BR14010114
0MI01000000CfYLGA0,BR14010214
0MI01000000CfCuGAK,BR14010314
0MI01000000CfIJGA0,BR14010419
0MI01000000CfVaGAK,BR14010519
0MI01000000CfDTGA0,BR14010612
0MI01000000CfJjGAK,BR14010712
0MI01000000Cf9FGAS,BR14010812
0MI01000000CfRAGA0,BR14020010
0MI01000000CfQWGA0,BR14020114
0MI01000000CfNIGA0,BR14020214
0MI01000000CfGGGA0,BR14020314
0MI01000000CfIRGA0,BR14020414
0MI01000000CfO0GAK,BR14020419
0MI01000000CfYUGA0,BR14020514
0MI01000000CfI7GAK,BR14020519
0MI01000000CfQEGA0,BR14020614
0MI01000000CfKsGAK,BR14020619
0MI01000000CfKNGA0,BR14020712
0MI01000000CfW9GAK,BR14020719
0MI01000000CfYAGA0,BR14020812
0MI01000000CfM0GAK,BR14020912
0MI01000000CfMZGA0,BR14020919
0MI01000000CfJLGA0,BR14030010
0MI01000000CfDrGAK,BR14030114
0MI01000000CfPJGA0,BR14030214
0MI01000000CfrIGAS,BR14030314
0MI01000000Cf9zGAC,BR14030319
0MI01000000CfTZGA0,BR14030419
0MI01000000CfPNGA0,BR14030512
0MI01000000CfP8GAK,BR14030612
0MI01000000CfdUGAS,BR14030712
0MI01000000CfImGAK,BR14040010
0MI01000000CfS8GAK,BR14040114
0MI01000000CfTRGA0,BR14040214
0MI01000000CfARGA0,BR14040314
0MI01000000CfTFGA0,BR14040419
0MI01000000CfVkGAK,BR14040519
0MI01000000CfY5GAK,BR14040612
0MI01000000CfchGAC,BR14040712
0MI01000000CfLpGAK,BR14050010
0MI01000000CfHeGAK,BR14050114
0MI01000000CfIWGA0,BR14050214
0MI01000000CfIMGA0,BR14050314
0MI01000000CfG1GAK,BR14050419
0MI01000000CfY7GAK,BR14050519
0MI01000000CfGBGA0,BR14050612
0MI01000000CfYFGA0,BR14050712
0MI01000000CfIiGAK,BR14050719
0MI01000000CfB7GAK,BR14050812
0MI01000000CfMKGA0,BR14050912
0MI01000000Cfa6GAC,BR14060010
0MI01000000Cfd0GAC,BR14060114
0MI01000000CfSWGA0,BR14060214
0MI01000000CfQCGA0,BR14060314
0MI01000000CfTKGA0,BR14060419
0MI01000000CfNlGAK,BR14060519
0MI01000000CfJtGAK,BR14060612
0MI01000000CfC5GAK,BR14060712
0MI01000000CfIXGA0,BR14070010
0MI01000000CfbsGAC,BR14070114
0MI01000000CfGLGA0,BR14070214
0MI01000000CfQRGA0,BR14070314
0MI01000000CfWPGA0,BR14070414
0MI01000000CfqyGAC,BR14070419
0MI01000000CfOeGAK,BR14070519
0MI01000000CfBgGAK,BR14070619
0MI01000000CfafGAC,BR14070712
0MI01000000CfK3GAK,BR14070812
0MI01000000CfATGA0,BR14070814
0MI01000000CfDlGAK,BR14070912
0MI01000000CfPpGAK,BR14071019
0MI01000000CfQVGA0,BR14080010
0MI01000000CfbnGAC,BR14080114
0MI01000000CfZYGA0,BR14080214
0MI01000000CfUVGA0,BR14080314
0MI01000000CfB2GAK,BR14080419
0MI01000000CfNvGAK,BR14080519
0MI01000000CfBhGAK,BR14080619
0MI01000000CfVuGAK,BR14080712
0MI01000000Cf9KGAS,BR14080812
0MI01000000CfC0GAK,BR14080912
0MI01000000CfRPGA0,BR14300146
0MI01000000CfNmGAK,BR14300246
0MI01000000CfLVGA0,BR15000080
0MI01000000CfPKGA0,BR15010010
0MI01000000Cfd5GAC,BR15010114
0MI01000000CfHpGAK,BR15010214
0MI01000000CfBWGA0,BR15010314
0MI01000000CfICGA0,BR15010419
0MI01000000CfEOGA0,BR15010519
0MI01000000CfQaGAK,BR15010619
0MI01000000CfHlGAK,BR15010712
0MI01000000CfLmGAK,BR15010812
0MI01000000CfPIGA0,BR15010912
0MI01000000CfNCGA0,BR15020010
0MI01000000CfWzGAK,BR15020114
0MI01000000CfNSGA0,BR15020214
0MI01000000CfMOGA0,BR15020314
0MI01000000CfFrGAK,BR15020419
0MI01000000CfJpGAK,BR15020519
0MI01000000CfKSGA0,BR15020612
0MI01000000CfHAGA0,BR15020712
0MI01000000CfXcGAK,BR15020812
0MI01000000CfShGAK,BR15030010
0MI01000000CfBGGA0,BR15030114
0MI01000000CfP9GAK,BR15030214
0MI01000000CfKZGA0,BR15030314
0MI01000000CfOFGA0,BR15030419
0MI01000000CfEzGAK,BR15030519
0MI01000000CfCUGA0,BR15030612
0MI01000000Cf9eGAC,BR15030712
0MI01000000CfXIGA0,BR15030812
0MI01000000CfG2GAK,BR15030919
0MI01000000CfFjGAK,BR15040010
0MI01000000CfPxGAK,BR15040114
0MI01000000CfAQGA0,BR15040214
0MI01000000CfM4GAK,BR15040314
0MI01000000CfZnGAK,BR15040419
0MI01000000CfP4GAK,BR15040512
0MI01000000Cfr0GAC,BR15040519
0MI01000000CfEKGA0,BR15040612
0MI01000000CfXSGA0,BR15040619
0MI01000000CfA9GAK,BR15040712
0MI01000000CfYBGA0,BR15040814
0MI01000000CfMQGA0,BR15040919
0MI01000000CfPAGA0,BR15050010
0MI01000000CfGHGA0,BR15050114
0MI01000000CfTwGAK,BR15050214
0MI01000000CfI9GAK,BR15050319
0MI01000000CfQkGAK,BR15050419
0MI01000000CfFSGA0,BR15050512
0MI01000000CfSJGA0,BR15050519
0MI01000000CfDEGA0,BR15050612
0MI01000000CfYKGA0,BR15050712
0MI01000000CfXqGAK,BR15050812
0MI01000000CfDsGAK,BR15050814
0MI01000000CfFNGA0,BR15050912
0MI01000000CfT0GAK,BR15060010
0MI01000000CfSIGA0,BR15060114
0MI01000000CfSCGA0,BR15060214
0MI01000000CfSHGA0,BR15060314
0MI01000000CfR4GAK,BR15060419
0MI01000000CfOpGAK,BR15060519
0MI01000000CfDvGAK,BR15060612
0MI01000000CfT7GAK,BR15060712
0MI01000000CfapGAC,BR15060812
0MI01000000CfFIGA0,BR15060912
0MI01000000CfEMGA0,BR15070010
0MI01000000CfJuGAK,BR15070114
0MI01000000CfVqGAK,BR15070214
0MI01000000CfW5GAK,BR15070314
0MI01000000CfIPGA0,BR15070419
0MI01000000CfLbGAK,BR15070519
0MI01000000CfNEGA0,BR15070612
0MI01000000CfIKGA0,BR15070712
0MI01000000Cfr3GAC,BR15070719
0MI01000000CfaQGAS,BR15070812
0MI01000000CfSOGA0,BR15080010
0MI01000000CfDdGAK,BR15080114
0MI01000000CfRiGAK,BR15080214
0MI01000000CfTVGA0,BR15080314
0MI01000000CfIHGA0,BR15080419
0MI01000000CfOAGA0,BR15080519
0MI01000000CfTAGA0,BR15080619
0MI01000000CfPDGA0,BR15080712
0MI01000000CfJoGAK,BR15080812
0MI01000000CfSvGAK,BR15090010
0MI01000000CfKaGAK,BR15090114
0MI01000000CfTvGAK,BR15090214
0MI01000000CfZIGA0,BR15090314
0MI01000000CfO5GAK,BR15090419
0MI01000000CfW4GAK,BR15090512
0MI01000000CfTuGAK,BR15090612
0MI01000000Cf9PGAS,BR15090712
0MI01000000CfFhGAK,BR16000080
0MI01000000CfHtGAK,BR16010010
0MI01000000CfXhGAK,BR16010114
0MI01000000CfIBGA0,BR16010214
0MI01000000CfOGGA0,BR16010314
0MI01000000CfUiGAK,BR16010419
0MI01000000CfP6GAK,BR16010519
0MI01000000CfMtGAK,BR16010619
0MI01000000CfRxGAK,BR16010712
0MI01000000CfS7GAK,BR16010812
0MI01000000CfACGA0,BR16020010
0MI01000000CfFVGA0,BR16020114
0MI01000000CfBYGA0,BR16020214
0MI01000000CfFmGAK,BR16020319
0MI01000000CfI4GAK,BR16020419
0MI01000000CfSNGA0,BR16020512
0MI01000000CfRsGAK,BR16020612
0MI01000000CfEAGA0,BR16020712
0MI01000000CfaaGAC,BR16020812
0MI01000000CfT5GAK,BR16030010
0MI01000000CfLEGA0,BR16030114
0MI01000000CfGQGA0,BR16030214
0MI01000000CfqvGAC,BR16030314
0MI01000000CfNbGAK,BR16030319
0MI01000000CfYPGA0,BR16030419
0MI01000000CfC1GAK,BR16030512
0MI01000000CfI8GAK,BR16030612
0MI01000000Cf9LGAS,BR16030712
0MI01000000CfSLGA0,BR16030812
0MI01000000CfUnGAK,BR16030912
0MI01000000CfYjGAK,BR16040010
0MI01000000CfQSGA0,BR16040114
0MI01000000CfROGA0,BR16040214
0MI01000000CfqxGAC,BR16040314
0MI01000000CfOVGA0,BR16040319
0MI01000000CfA0GAK,BR16040419
0MI01000000CfVzGAK,BR16040512
0MI01000000CfHjGAK,BR16040612
0MI01000000CfCzGAK,BR16040712
0MI01000000CfG6GAK,BR16040812
0MI01000000CfSqGAK,BR16050010
0MI01000000CfB6GAK,BR16050114
0MI01000000CfNoGAK,BR16050214
0MI01000000CfRTGA0,BR16050314
0MI01000000CfI2GAK,BR16050419
0MI01000000CfArGAK,BR16050519
0MI01000000CfcDGAS,BR16050612
0MI01000000CfRRGA0,BR16050712
0MI01000000CfOfGAK,BR16050812
0MI01000000CfNMGA0,BR16060010
0MI01000000CfAwGAK,BR16060114
0MI01000000CfM9GAK,BR16060214
0MI01000000CfHxGAK,BR16060319
0MI01000000CfBRGA0,BR16060419
0MI01000000Cf9ZGAS,BR16060512
0MI01000000Cf9UGAS,BR16060612
0MI01000000CfE5GAK,BR16060712
0MI01000000CfakGAC,BR16060812
0MI01000000CfVLGA0,BR16060912
0MI01000000CfSlGAK,BR16070010
0MI01000000CfM5GAK,BR16070114
0MI01000000CfSMGA0,BR16070214
0MI01000000CfRdGAK,BR16070314
0MI01000000CfREGA0,BR16070419
0MI01000000CfRQGA0,BR16070519
0MI01000000CfWjGAK,BR16070612
0MI01000000CfVVGA0,BR16070712
0MI01000000CfTWGA0,BR16070812
0MI01000000CfNHGA0,BR16080010
0MI01000000CfUoGAK,BR16080114
0MI01000000CfB1GAK,BR16080214
0MI01000000CfMJGA0,BR16080314
0MI01000000CfLcGAK,BR16080419
0MI01000000CfQzGAK,BR16080519
0MI01000000CfY0GAK,BR16080612
0MI01000000CfVQGA0,BR16080712
0MI01000000CfC6GAK,BR16080812
0MI01000000CfMaGAK,BR16090010
0MI01000000CfHuGAK,BR16090114
0MI01000000CfALGA0,BR16090214
0MI01000000CfazGAC,BR16090314
0MI01000000CfNgGAK,BR16090419
0MI01000000CfCtGAK,BR16090519
0MI01000000CfXrGAK,BR16090619
0MI01000000CfAVGA0,BR16090712
0MI01000000CfHPGA0,BR16090812
0MI01000000CfYeGAK,BR16090919
0MI01000000CfUSGA0,BR16150146
0MI01000000CfI3GAK,BR16300146
0MI01000000CfUTGA0,BR17000000
0MI01000000CfJVGA0,BR17000040
0MI01000000CfS3GAK,BR17000050
0MI01000000CfJxGAK,BR17000080
0MI01000000CfTBGA0,BR17010030
0MI01000000CfJZGA0,BR17010132
0MI01000000CfA1GAK,BR17010232
0MI01000000CfFYGA0,BR17010332
0MI01000000CfAoGAK,BR17010433
0MI01000000CfGtGAK,BR17010533
0MI01000000CfYZGA0,BR17010633
0MI01000000Cfa1GAC,BR17010733
0MI01000000CfHUGA0,BR17020030
0MI01000000CfJPGA0,BR17020132
0MI01000000CfJUGA0,BR17020232
0MI01000000CfDCGA0,BR17020332
0MI01000000CfWUGA0,BR17020433
0MI01000000Cfr8GAC,BR17020532
0MI01000000CfOXGA0,BR17020533
0MI01000000CfLMGA0,BR17020633
0MI01000000CfDcGAK,BR17020733
0MI01000000CfUyGAK,BR17020833
0MI01000000CfEgGAK,BR17030030
0MI01000000CfDWGA0,BR17030132
0MI01000000CfFTGA0,BR17030232
0MI01000000CfDMGA0,BR17030332
0MI01000000CfJeGAK,BR17030432
0MI01000000CfL2GAK,BR17030533
0MI01000000CfKyGAK,BR17030633
0MI01000000CfW0GAK,BR17030733
0MI01000000CfBrGAK,BR17040030
0MI01000000CfHoGAK,BR17040131
0MI01000000CfP5GAK,BR17040231
0MI01000000CfOyGAK,BR17040331
0MI01000000CfDIGA0,BR17040434
0MI01000000CfDSGA0,BR17040534
0MI01000000CfT1GAK,BR17050030
0MI01000000CfOoGAK,BR17050131
0MI01000000CfTzGAK,BR17050231
0MI01000000CfRFGA0,BR17050331
0MI01000000CfIIGA0,BR17050431
0MI01000000CfRLGA0,BR17050434
0MI01000000CfXWGA0,BR17050531
0MI01000000CfLNGA0,BR17050534
0MI01000000CfNsGAK,BR17050634
0MI01000000CfdAGAS,BR17050734
0MI01000000CfaWGAS,BR17050834
0MI01000000CfW1GAK,BR17050934
0MI01000000CfOtGAK,BR17060030
0MI01000000CfDXGA0,BR17060131
0MI01000000CfKPGA0,BR17060231
0MI01000000CfAnGAK,BR17060331
0MI01000000CfIxGAK,BR17060434
0MI01000000CfIQGA0,BR17060534
0MI01000000CfQIGA0,BR17070030
0MI01000000CfD2GAK,BR17070132
0MI01000000CfCxGAK,BR17070232
0MI01000000CfD7GAK,BR17070332
0MI01000000CfGwGAK,BR17070433
0MI01000000CfclGAC,BR17070533
0MI01000000CfXgGAK,BR17070633
0MI01000000CfG3GAK,BR17080030
0MI01000000CfKAGA0,BR17080131
0MI01000000CfO7GAK,BR17080231
0MI01000000CfVGGA0,BR17080331
0MI01000000CfVbGAK,BR17080431
0MI01000000CfBlGAK,BR17080531
0MI01000000CfISGA0,BR17080534
0MI01000000CfecGAC,BR17080634
0MI01000000CfdRGAS,BR17080734
0MI01000000CfOmGAK,BR17080834
0MI01000000CfFEGA0,BR17080934
0MI01000000CfVBGA0,BR17090030
0MI01000000CfO6GAK,BR17090131
0MI01000000CfP3GAK,BR17090231
0MI01000000CfCZGA0,BR17090331
0MI01000000CfDtGAK,BR17090434
0MI01000000CfaLGAS,BR17090534
0MI01000000CfFUGA0,BR17100030
0MI01000000CfJKGA0,BR17100132
0MI01000000CfCFGA0,BR17100232
0MI01000000CfHsGAK,BR17100332
0MI01000000CfZwGAK,BR17100433
0MI01000000CfU4GAK,BR17100533
0MI01000000CfXbGAK,BR17100633
0MI01000000CfcqGAC,BR17100733
0MI01000000CfquGAC,BR17100833
0MI01000000CfaBGAS,BR17110030
0MI01000000CfaGGAS,BR17110135
0MI01000000CfEkGAK,BR17110235
0MI01000000CfWZGA0,BR17110335
0MI01000000Cfa2GAC,BR17110435
0MI01000000CfAeGAK,BR17110535
0MI01000000CfV7GAK,BR17110635
0MI01000000CfIwGAK,BR17110735
0MI01000000CfBmGAK,BR17110835
0MI01000000CfSKGA0,BR17110935
0MI01000000CfXlGAK,BR17120030
0MI01000000CfXNGA0,BR17120135
0MI01000000CfEHGA0,BR17120235
0MI01000000CfVHGA0,BR17120335
0MI01000000CfABGA0,BR17120435
0MI01000000CfX2GAK,BR17120535
0MI01000000CfA4GAK,BR17120635
0MI01000000CfMFGA0,BR17150146
0MI01000000CfQGGA0,BR17300246
0MI01000000CfH3GAK,BR18000080
0MI01000000CfRzGAK,BR18010020
0MI01000000CfCoGAK,BR18010121
0MI01000000CfILGA0,BR18010221
0MI01000000CfGNGA0,BR18010321
0MI01000000CfMuGAK,BR18010421
0MI01000000CfBDGA0,BR18010521
0MI01000000CfT6GAK,BR18010621
0MI01000000CfUIGA0,BR18010721
0MI01000000CfUDGA0,BR18010821
0MI01000000CfIhGAK,BR18010921
0MI01000000CfU8GAK,BR18011021
0MI01000000CfCgGAK,BR18020020
0MI01000000CfU3GAK,BR18020121
0MI01000000CfFiGAK,BR18020221
0MI01000000CfTyGAK,BR18020321
0MI01000000CfTtGAK,BR18020421
0MI01000000CfToGAK,BR18020521
0MI01000000CfFJGA0,BR18020621
0MI01000000CfPhGAK,BR18020721
0MI01000000CfPcGAK,BR18020821
0MI01000000CfPOGA0,BR18020921
0MI01000000CfCaGAK,BR18030020
0MI01000000CfPXGA0,BR18030121
0MI01000000CfNwGAK,BR18030221
0MI01000000CfPSGA0,BR18030321
0MI01000000CfJwGAK,BR18030421
0MI01000000CfJvGAK,BR18030521
0MI01000000CfHZGA0,BR18030621
0MI01000000CfOZGA0,BR18030721
0MI01000000CfOUGA0,BR18030821
0MI01000000CfIAGA0,BR18040020
0MI01000000CfOPGA0,BR18040121
0MI01000000CfOKGA0,BR18040221
0MI01000000CfKrGAK,BR18040321
0MI01000000CfGIGA0,BR18040421
0MI01000000CfELGA0,BR18040521
0MI01000000CfKmGAK,BR18040621
0MI01000000CfKhGAK,BR18040721
0MI01000000CfJFGA0,BR18040821
0MI01000000CfJAGA0,BR18040921
0MI01000000CfJ5GAK,BR18041021
0MI01000000Cf96GAC,BR18050020
0MI01000000CfINGA0,BR18050121
0MI01000000CfJ0GAK,BR18050221
0MI01000000CfIvGAK,BR18050321
0MI01000000CfIqGAK,BR18050421
0MI01000000CfAKGA0,BR18050521
0MI01000000CfC9GAK,BR18050621
0MI01000000CfBqGAK,BR18050721
0MI01000000CfC4GAK,BR18050821
0MI01000000CfBzGAK,BR18050921
0MI01000000CfYyGAK,BR18060020
0MI01000000CfBuGAK,BR18060121
0MI01000000CfBpGAK,BR18060221
0MI01000000CfBkGAK,BR18060321
0MI01000000CfBfGAK,BR18060421
0MI01000000CfBaGAK,BR18060521
0MI01000000CfBVGA0,BR18060621
0MI01000000CfBQGA0,BR18060721
0MI01000000CfBLGA0,BR18060821
0MI01000000CfAOGA0,BR18060921
0MI01000000CfdtGAC,BR18061021
0MI01000000CfC3GAK,BR18070020
0MI01000000CfTpGAK,BR18070121
0MI01000000CfdoGAC,BR18070221
0MI01000000CfUWGA0,BR18070321
0MI01000000CfdjGAC,BR18070421
0MI01000000CfGlGAK,BR18070521
0MI01000000CfWlGAK,BR18070621
0MI01000000CfdeGAC,BR18070721
0MI01000000CfS0GAK,BR18070821
0MI01000000CfavGAC,BR18070921
0MI01000000CfYtGAK,BR18080020
0MI01000000CfaRGAS,BR18080121
0MI01000000CfdZGAS,BR18080221
0MI01000000CfEhGAK,BR18080321
0MI01000000CfCpGAK,BR18080421
0MI01000000CfbOGAS,BR18080521
0MI01000000Cf97GAC,BR18080621
0MI01000000CfbJGAS,BR18080721
0MI01000000CfUUGA0,BR18080821
0MI01000000CfCVGA0,BR18080921
0MI01000000CfRjGAK,BR18090020
0MI01000000CfbEGAS,BR18090121
0MI01000000Cfb9GAC,BR18090221
0MI01000000CfWLGA0,BR18090321
0MI01000000CfX0GAK,BR18090421
0MI01000000CfrAGAS,BR18090521
0MI01000000Cfr9GAC,BR18090721
0MI01000000CfRKGA0,BR19000080
0MI01000000Cfc7GAC,BR19010122
0MI01000000Cf9GGAS,BR19010180
0MI01000000Cfc2GAC,BR19010222
0MI01000000CfN4GAK,BR19010280
0MI01000000CfOQGA0,BR19010322
0MI01000000CfBZGA0,BR19010380
0MI01000000CfbxGAC,BR19010422
0MI01000000CfLDGA0,BR19010480
0MI01000000CfGKGA0,BR20000040
0MI01000000CfUmGAK,BR21000040
0MI01000000CfcCGAS,BR21000087
0MI01000000CfWdGAK,BR21000186
0MI01000000CfUxGAK,BR21000286
0MI01000000CfWYGA0,BR21000386
0MI01000000CfP7GAK,BR21000486
0MI01000000CfWeGAK,BR21010087
0MI01000000CfrLGAS,BR21010188
0MI01000000CfrKGAS,BR21010288
0MI01000000CfASGA0,BR21010388
0MI01000000CfAhGAK,BR21010488
0MI01000000CfHJGA0,BR21010588
0MI01000000CfCeGAK,BR21010688
0MI01000000CfAXGA0,BR21010788
0MI01000000CfHnGAK,BR21010888
0MI01000000CfZXGA0,BR21010988
0MI01000000CfWyGAK,BR21011088
0MI01000000CfTjGAK,BR21020087
0MI01000000CfN2GAK,BR21020188
0MI01000000CfGvGAK,BR21020288
0MI01000000CfN7GAK,BR21020388
0MI01000000CfEaGAK,BR21020488
0MI01000000CfAsGAK,BR21020588
0MI01000000CfHQGA0,BR21020688
0MI01000000CfrJGAS,BR21040089
0MI01000000CfWMGA0,BR22000087
0MI01000000CfVrGAK,BR22000186
0MI01000000CfWiGAK,BR22000286
0MI01000000CfT8GAK,BR22010089
0MI01000000CfCiGAK,BR22010188
0MI01000000CfHiGAK,BR22010288
0MI01000000CfdQGAS,BR22010388
0MI01000000CfHTGA0,BR22010488
0MI01000000CfS4GAK,BR22010588
0MI01000000CfZSGA0,BR22010688
0MI01000000CfZcGAK,BR22010788
0MI01000000CfXXGA0,BR22010888
0MI01000000CfrMGAS,BR22030089
0MI01000000CfUhGAK,BR23000040
0MI01000000CfcHGAS,BR23000087
0MI01000000CfZNGA0,BR23000186
0MI01000000CfVMGA0,BR23000286
0MI01000000CfVCGA0,BR23000386
0MI01000000CfZ5GAK,BR23001089
0MI01000000CfNnGAK,BR23001186
0MI01000000CfWnGAK,BR23001286
0MI01000000CfOaGAK,BR23001386
0MI01000000CfNhGAK,BR23010087
0MI01000000CfGxGAK,BR23010188
0MI01000000CfAmGAK,BR23010288
0MI01000000CfH9GAK,BR23010388
0MI01000000CfCsGAK,BR23010488
0MI01000000CfAcGAK,BR23010588
0MI01000000CfNDGA0,BR23010688
0MI01000000CfrNGAS,BR23010888
0MI01000000Cfr2GAC,BR23020087
0MI01000000CfXdGAK,BR23020089
0MI01000000CfHOGA0,BR23020188
0MI01000000CfrCGAS,BR23020189
0MI01000000CfHEGA0,BR23020288
0MI01000000CfH4GAK,BR23020388
0MI01000000CfGzGAK,BR23020488
0MI01000000CfHdGAK,BR23020588
0MI01000000CfW6GAK,BR23020688
0MI01000000Cfr1GAC,BR23030087
0MI01000000CfVlGAK,BR23030089
0MI01000000CfCnGAK,BR23030188
0MI01000000Cfa7GAC,BR23030288
0MI01000000CfH2GAK,BR23030388
0MI01000000CfrEGAS,BR23050189
0MI01000000CfWaGAK,BR24000087
0MI01000000CfF9GAK,BR24010188
0MI01000000CfHYGA0,BR24010288
0MI01000000CfFOGA0,BR24010388
0MI01000000CfMRGA0,BR_ADMIN
0MI01000000CfHfGAK,BR_ANALISTA_2
0MI01000000CfbBGAS,BR_Analista_marca_dia1
0MI01000000CfPLGA0,BR_Analista_marca_dia2
0MI01000000CfGrGAK,BR_ANALISTA_ONCO1
0MI01000000CfDHGA0,BR_ANALISTA_ONCO2
0MI01000000CfXsGAK,BR_ANALISTA_ONCO3
0MI01000000CfZ3GAK,BR_ANALIT_RESP
0MI01000000CfQqGAK,BR_ANALIT_RESP3
0MI01000000CfbdGAC,BR_APClinica1
0MI01000000CfUdGAK,BR_Assistente_CVM1
0MI01000000CfE6GAK,BR_Assistente_Onco1
0MI01000000CfbYGAS,BR_Assistente_Resp1
0MI01000000CfKQGA0,BR_Assistente_Resp2
0MI01000000CfPBGA0,BR_AssistRESP
0MI01000000CfK9GAK,BR_Assist_Acesso
0MI01000000CfZmGAK,BR_Assist_Acesso1
0MI01000000CfbAGAS,BR_Assist_Brilinta1
0MI01000000CfbiGAC,BR_Assist_Medico1
0MI01000000CfZDGA0,BR_Assist_Medico2
0MI01000000CfR6GAK,BR_Assist_RelGov1
0MI01000000CfCfGAK,BR_BA1_Legacy
0MI01000000CfENGA0,BR_BA2_Legacy
0MI01000000Cfe3GAC,BR_BU_Head_Brilinta
0MI01000000Cf9BGAS,BR_BU_Head_CVM
0MI01000000CfdyGAC,BR_BU_Head_Legacy
0MI01000000CfcgGAC,BR_BU_Head_Onco
0MI01000000CfZ6GAK,BR_BU_Head_Resp
0MI01000000CfeIGAS,BR_BU_Head_RIA
0MI01000000CfDeGAK,BR_Clinica1
0MI01000000CfeSGAS,BR_Clinica2
0MI01000000Cfc9GAC,BR_Clinica3
0MI01000000CfeXGAS,BR_Clinica4
0MI01000000CfTeGAK,BR_CoordenadorMarca_Dia3
0MI01000000CfTGGA0,BR_DirNovosNegocios
0MI01000000CfD3GAK,BR_DirRelGov_NovoNeg
0MI01000000CfcRGAS,BR_Eventos1
0MI01000000CfKxGAK,BR_Eventos2
0MI01000000CfZrGAK,BR_Eventos3
0MI01000000CfZ8GAK,BR_Eventos4
0MI01000000CfcWGAS,BR_Eventos5
0MI01000000CfWtGAK,BR_Eventos6
0MI01000000CfNiGAK,BR_GerenteAcesso
0MI01000000CfXMGA0,BR_GerenteAcesso1
0MI01000000CfCYGA0,BR_GerenteDiag1
0MI01000000CfA2GAK,BR_GerenteMarca_Dia1
0MI01000000CfQBGA0,BR_GerenteMarca_Dia2
0MI01000000CfXRGA0,BR_GerenteMarca_Dia3
0MI01000000CfL6GAK,BR_GerenteMedico1
0MI01000000CfPmGAK,BR_GerenteMedico2
0MI01000000CfAAGA0,BR_GerenteMedico3
0MI01000000CfBCGA0,BR_GerenteMedico4
0MI01000000CfLBGA0,BR_GerenteMedico5
0MI01000000CfIOGA0,BR_GerenteMedico6
0MI01000000CfAYGA0,BR_GerenteRelGovAPc
0MI01000000CfLGGA0,BR_GerMarcaLegacy
0MI01000000CfNcGAK,BR_GerMarcaLegacy2
0MI01000000CfLCGA0,BR_GerMarca_Comercial_I
0MI01000000CfRnGAK,BR_GerTreinR&I
0MI01000000CfEZGA0,BR_Ger_Preco
0MI01000000CfeDGAS,BR_Ger_Trein_Dia
0MI01000000CfAxGAK,BR_GM1_IO
0MI01000000CfKwGAK,BR_GM1_Legacy
0MI01000000CfOzGAK,BR_GM1_LUNG
0MI01000000CfDRGA0,BR_GM1_WH
0MI01000000CfAZGA0,BR_GM2_IO
0MI01000000CfCJGA0,BR_GM2_Legacy
0MI01000000CfKEGA0,BR_GM2_LUNG
0MI01000000CfDbGAK,BR_GM2_WH
0MI01000000CfLWGA0,BR_GM3_IO
0MI01000000CfCyGAK,BR_GM_Brilinta1
0MI01000000CfEUGA0,BR_GM_Brilinta2
0MI01000000CfAJGA0,BR_GM_ImunoOnco1
0MI01000000CfLlGAK,BR_GM_Onco1
0MI01000000CfQ6GAK,BR_GM_Onco2
0MI01000000CfPwGAK,BR_GM_Onco3
0MI01000000CfLLGA0,BR_GM_Onco4
0MI01000000CfL7GAK,BR_GM_Onco5
0MI01000000CfQ1GAK,BR_GM_Onco6
0MI01000000CfCdGAK,BR_GM_Resp1
0MI01000000CfAdGAK,BR_GM_Resp2
0MI01000000CfEjGAK,BR_GM_Resp3
0MI01000000CfCEGA0,BR_GM_Resp4
0MI01000000CfEeGAK,BR_GM_Resp5
0MI01000000CfORGA0,BR_GPClinica1
0MI01000000CfEPGA0,BR_GPClinica2
0MI01000000CfCTGA0,BR_GPClinica3
0MI01000000CfcXGAS,BR_GPClinica4
0MI01000000CfKJGA0,BR_Head_Onco
0MI01000000CfCbGAK,BR_HP Clinica
0MI01000000CfUwGAK,BR_KAM_Director
0MI01000000Cfe8GAC,BR_Legacy_MKT
0MI01000000CfKFGA0,BR_Medical_Admin
0MI01000000CfCOGA0,BR_Medical_Group1
0MI01000000CfcbGAC,BR_Medical_Head
0MI01000000CfL1GAK,BR_MKT_Diabetes
0MI01000000CfWVGA0,BR_MKT_ONCO1
0MI01000000CfWmGAK,BR_MKT_ONCO2
0MI01000000CfGsGAK,BR_PATIENTE_ADVC
0MI01000000CfcMGAS,BR_Pesquisa_Clinica
0MI01000000CfPrGAK,BR_POS1
0MI01000000CfZhGAK,BR_POS_Gerente
0MI01000000CfFXGA0,BR_Sales_Admin
0MI01000000CfZ4GAK,BR_SFV1
0MI01000000CfbTGAS,BR_SFV2
0MI01000000CffGGAS,Corp
0MI01000000CfOWGA0,GER_PROD1
